[
    {
        "id": "b8a5e9df-3ecc-4313-b59b-53e479a3fc8a",
        "process": "Update VIIRS by days",
        "jobID": null,
        "processID": "c3ecd80f7a5240beba35cab3",
        "status": null,
        "progress": null,
        "createdAt": null,
        "createdBy": null,
        "updatedAt": null,
        "updatedBy": null,
        "Duration(seconds)": null
    },
    {
        "id": "79a315c1-cbec-4ca9-8869-9cfa7a7ddf17",
        "process": "FLOOD UPDATE BY DAY",
        "jobID": null,
        "processID": "1219fad8f52f410195a0ce91",
        "status": null,
        "progress": null,
        "createdAt": null,
        "createdBy": null,
        "updatedAt": null,
        "updatedBy": null,
        "Duration(seconds)": null
    },
    {
        "id": "5f37f216-89d8-499c-9162-09cc69e64dc2",
        "process": "Forest Fire Prediction",
        "jobID": null,
        "processID": "3787acf59fc64067ae346538",
        "status": null,
        "progress": null,
        "createdAt": null,
        "createdBy": null,
        "updatedAt": null,
        "updatedBy": null,
        "Duration(seconds)": null
    },
    {
        "id": "3857cbb2-cf27-41a0-b373-e101b9db5743",
        "process": "Rainfall 24h Thailand",
        "jobID": null,
        "processID": "e4aa00e1db894f7194c24437",
        "status": null,
        "progress": null,
        "createdAt": null,
        "createdBy": null,
        "updatedAt": null,
        "updatedBy": null,
        "Duration(seconds)": null
    },
    {
        "id": "ac217b5b-96b8-4939-a483-88c82bc00cfd",
        "process": "Rain Forecast",
        "jobID": null,
        "processID": "1b0c2ed3fa3c462591adcc25",
        "status": null,
        "progress": null,
        "createdAt": null,
        "createdBy": null,
        "updatedAt": null,
        "updatedBy": null,
        "Duration(seconds)": null
    },
    {
        "id": "7574d5ea088b47ca910c2361",
        "process": "VIIRS 7 Days",
        "jobID": "9f3a338206d4417cadff0515",
        "processID": "7574d5ea088b47ca910c2361",
        "status": "successful",
        "progress": 100,
        "createdAt": "2024-11-22T01:05:00.213Z",
        "createdBy": "66b07c8034c2963abcdb9bb8",
        "updatedAt": "2024-11-22T01:07:02.773Z",
        "updatedBy": "66b07c8034c2963abcdb9bb8",
        "Duration(seconds)": 122.56
    },
    {
        "id": "96565d071a9a4ea6b7b5cfa2",
        "process": "VIIRS 3 Days",
        "jobID": "8d8f5988f0b34fa39caf74af",
        "processID": "96565d071a9a4ea6b7b5cfa2",
        "status": "successful",
        "progress": 100,
        "createdAt": "2024-11-22T00:05:00.213Z",
        "createdBy": "66b07c8034c2963abcdb9bb8",
        "updatedAt": "2024-11-22T00:06:04.866Z",
        "updatedBy": "66b07c8034c2963abcdb9bb8",
        "Duration(seconds)": 64.653
    },
    {
        "id": "16e65977-a78a-439a-9f90-6d040757c674",
        "process": "VIIRS 30 Days (Execute)",
        "jobID": null,
        "processID": "d6a6212e9a6149e186ae9a15",
        "status": null,
        "progress": null,
        "createdAt": null,
        "createdBy": null,
        "updatedAt": null,
        "updatedBy": null,
        "Duration(seconds)": null
    },
    {
        "id": "12cd7158-d3e6-4175-ae07-e8f38258a10b",
        "process": "VIIRS 7 Days (Execute)",
        "jobID": null,
        "processID": "9a21dd2f53464a088b12bdaa",
        "status": null,
        "progress": null,
        "createdAt": null,
        "createdBy": null,
        "updatedAt": null,
        "updatedBy": null,
        "Duration(seconds)": null
    },
    {
        "id": "62f67b59-501d-4639-abd9-f04371de6f3b",
        "process": "VIIRS 3 Days",
        "jobID": null,
        "processID": "4cd30f5b4bbc4a218d7ef2c5",
        "status": null,
        "progress": null,
        "createdAt": null,
        "createdBy": null,
        "updatedAt": null,
        "updatedBy": null,
        "Duration(seconds)": null
    },
    {
        "id": "f9721355-7c09-4e6c-9204-3c9aaa4b0aae",
        "process": "Flood Forecast (Execute)",
        "jobID": null,
        "processID": "7573ca28535c410b99c964dc",
        "status": null,
        "progress": null,
        "createdAt": null,
        "createdBy": null,
        "updatedAt": null,
        "updatedBy": null,
        "Duration(seconds)": null
    },
    {
        "id": "d9d20a69-3ea7-4ca1-b991-447fda72f8dc",
        "process": "Hyacinth (Execute)",
        "jobID": null,
        "processID": "71a3b611a3894458875b6efd",
        "status": null,
        "progress": null,
        "createdAt": null,
        "createdBy": null,
        "updatedAt": null,
        "updatedBy": null,
        "Duration(seconds)": null
    },
    {
        "id": "555891cf-b9af-4894-b197-e9ca45edfe4b",
        "process": "NDWI (Execute)",
        "jobID": null,
        "processID": "3ca3f304ccc1466190d396a0",
        "status": null,
        "progress": null,
        "createdAt": null,
        "createdBy": null,
        "updatedAt": null,
        "updatedBy": null,
        "Duration(seconds)": null
    },
    {
        "id": "025e5a4d-1e3c-4a4a-b01b-30658a3e3f4e",
        "process": "DRI + (Execute)",
        "jobID": null,
        "processID": "ab0ad1d6081d4dcda4e4f4f2",
        "status": null,
        "progress": null,
        "createdAt": null,
        "createdBy": null,
        "updatedAt": null,
        "updatedBy": null,
        "Duration(seconds)": null
    },
    {
        "id": "b38c6bed-4d7b-420e-8ec8-c4fe943e7ed6",
        "process": "Burn Area Landsat 8-9 (Execute)",
        "jobID": null,
        "processID": "cead157c269c454a8df578d9",
        "status": null,
        "progress": null,
        "createdAt": null,
        "createdBy": null,
        "updatedAt": null,
        "updatedBy": null,
        "Duration(seconds)": null
    },
    {
        "id": "1b94736c-8241-4c81-98d6-1d3cb2141be5",
        "process": "SMAP (Execute)",
        "jobID": null,
        "processID": "4fdb92a7533848fe93f431e3",
        "status": null,
        "progress": null,
        "createdAt": null,
        "createdBy": null,
        "updatedAt": null,
        "updatedBy": null,
        "Duration(seconds)": null
    },
    {
        "id": "e508e4ae-b855-4dc8-8acf-83148b455c4e",
        "process": "Burn Area Sentinel-2",
        "jobID": null,
        "processID": "79a068b5cc854c31934833d0",
        "status": null,
        "progress": null,
        "createdAt": null,
        "createdBy": null,
        "updatedAt": null,
        "updatedBy": null,
        "Duration(seconds)": null
    },
    {
        "id": "e459ed521b3f4597842ea006",
        "process": "VIIRS 30 Days",
        "jobID": "55c43b4aa737486c91f86785",
        "processID": "e459ed521b3f4597842ea006",
        "status": "successful",
        "progress": 100,
        "createdAt": "2024-11-22T01:30:00.243Z",
        "createdBy": "66b07c8034c2963abcdb9bb8",
        "updatedAt": "2024-11-22T01:39:07.583Z",
        "updatedBy": "66b07c8034c2963abcdb9bb8",
        "Duration(seconds)": 547.34
    },
    {
        "id": "2a97b948-e2ed-443c-963d-01cb8be41d79",
        "process": "VIIRS 1 Days (Execute)",
        "jobID": null,
        "processID": "dac21a71073540609a2d1386",
        "status": null,
        "progress": null,
        "createdAt": null,
        "createdBy": null,
        "updatedAt": null,
        "updatedBy": null,
        "Duration(seconds)": null
    },
    {
        "id": "c256ff45-8578-4939-a21d-1b8dbe521a75",
        "process": "R2 - FLOOD ",
        "jobID": null,
        "processID": "9a39d43138b949c5b540dc73",
        "status": null,
        "progress": null,
        "createdAt": null,
        "createdBy": null,
        "updatedAt": null,
        "updatedBy": null,
        "Duration(seconds)": null
    },
    {
        "id": "24b34f31-6217-4001-bf3e-86631cc641ec",
        "process": "FLOOD 1 DAYS _Update ",
        "jobID": null,
        "processID": "fbf3375d272447a696329c89",
        "status": null,
        "progress": null,
        "createdAt": null,
        "createdBy": null,
        "updatedAt": null,
        "updatedBy": null,
        "Duration(seconds)": null
    },
    {
        "id": "34e4939e23c24d72bb1b94de",
        "process": "VIIRS Realtime (Execute)",
        "jobID": "2c077ee83581496e9efc9982",
        "processID": "34e4939e23c24d72bb1b94de",
        "status": "successful",
        "progress": 100,
        "createdAt": "2024-11-21T09:54:04.255Z",
        "createdBy": "66b07c8034c2963abcdb9bb8",
        "updatedAt": "2024-11-21T09:54:37.837Z",
        "updatedBy": "66b07c8034c2963abcdb9bb8",
        "Duration(seconds)": 33.582
    },
    {
        "id": "7c89be6b31104ec9bc1fd93a",
        "process": "VIIRS Realtime",
        "jobID": "0c93ef19cacb4a8ba9404da9",
        "processID": "7c89be6b31104ec9bc1fd93a",
        "status": "successful",
        "progress": 100,
        "createdAt": "2024-11-22T07:00:00.343Z",
        "createdBy": "66b07c8034c2963abcdb9bb8",
        "updatedAt": "2024-11-22T07:00:41.890Z",
        "updatedBy": "66b07c8034c2963abcdb9bb8",
        "Duration(seconds)": 41.547
    },
    {
        "id": "2d59a604-6da1-4c0c-ade6-fb1cff2ce2a5",
        "process": "Story Map Fire",
        "jobID": null,
        "processID": "aef8b13f49d941208c13d609",
        "status": null,
        "progress": null,
        "createdAt": null,
        "createdBy": null,
        "updatedAt": null,
        "updatedBy": null,
        "Duration(seconds)": null
    },
    {
        "id": "60e525cd-fd90-408c-bcd8-61731f3e62fe",
        "process": "Story Map Flood R2",
        "jobID": null,
        "processID": "36dc3d6c65144ff79b93a7f4",
        "status": null,
        "progress": null,
        "createdAt": null,
        "createdBy": null,
        "updatedAt": null,
        "updatedBy": null,
        "Duration(seconds)": null
    },
    {
        "id": "ad9cf4fe-ad7f-45b7-88c1-12ed26ecf907",
        "process": "Flood 3 Days",
        "jobID": null,
        "processID": "6df3048ec04f4865a7d8043f",
        "status": null,
        "progress": null,
        "createdAt": null,
        "createdBy": null,
        "updatedAt": null,
        "updatedBy": null,
        "Duration(seconds)": null
    },
    {
        "id": "19bbbaa3-06bf-429d-8e98-6bfeaa5b2312",
        "process": "Flood 7 Days ",
        "jobID": null,
        "processID": "39b763f5977e40f899814ee8",
        "status": null,
        "progress": null,
        "createdAt": null,
        "createdBy": null,
        "updatedAt": null,
        "updatedBy": null,
        "Duration(seconds)": null
    },
    {
        "id": "a8d5a6b1-7449-47d1-9ef9-c53e253c5ec4",
        "process": "Flood 30 Days",
        "jobID": null,
        "processID": "7cf6f57740c44fa283588319",
        "status": null,
        "progress": null,
        "createdAt": null,
        "createdBy": null,
        "updatedAt": null,
        "updatedBy": null,
        "Duration(seconds)": null
    },
    {
        "id": "b89d5d7adf4847ffa01d872b",
        "process": "FLOOD 1 DAYS ",
        "jobID": "b428aaff06a240d6929b3818",
        "processID": "b89d5d7adf4847ffa01d872b",
        "status": "failed",
        "progress": 2,
        "createdAt": "2024-11-21T23:00:00.341Z",
        "createdBy": "66b07c8034c2963abcdb9bb8",
        "updatedAt": "2024-11-21T23:00:04.771Z",
        "updatedBy": "66b07c8034c2963abcdb9bb8",
        "Duration(seconds)": 4.43
    },
    {
        "id": "ed67b24df80b43558c7ddc40",
        "process": "VIIRS 1 Days",
        "jobID": "48b612657b9a4a9a897e3f11",
        "processID": "ed67b24df80b43558c7ddc40",
        "status": "successful",
        "progress": 100,
        "createdAt": "2024-11-22T00:00:00.243Z",
        "createdBy": "66b07c8034c2963abcdb9bb8",
        "updatedAt": "2024-11-22T00:01:12.123Z",
        "updatedBy": "66b07c8034c2963abcdb9bb8",
        "Duration(seconds)": 71.88
    },
    {
        "id": "c620512b-2a52-4c81-9639-dd05d8a580d9",
        "process": "VIIRS 1 Days Update Daily ",
        "jobID": null,
        "processID": "3cf4ab4e9a6e4ff08b8db713",
        "status": null,
        "progress": null,
        "createdAt": null,
        "createdBy": null,
        "updatedAt": null,
        "updatedBy": null,
        "Duration(seconds)": null
    },
    {
        "id": "e2d8029a-97f7-4f43-b662-0d55abfb1599",
        "process": "FLOOD 1 DAYS Execute",
        "jobID": null,
        "processID": "d8198ad9d80145cc9a6617e3",
        "status": null,
        "progress": null,
        "createdAt": null,
        "createdBy": null,
        "updatedAt": null,
        "updatedBy": null,
        "Duration(seconds)": null
    },
    {
        "id": "dffc87e08d0a4315b4d3262d",
        "process": "DRI + Weekly ",
        "jobID": "6f06d812be51435d8a2038fd",
        "processID": "dffc87e08d0a4315b4d3262d",
        "status": "failed",
        "progress": 80,
        "createdAt": "2024-11-19T07:41:03.608Z",
        "createdBy": "66b07c8034c2963abcdb9bb8",
        "updatedAt": "2024-11-19T07:58:56.660Z",
        "updatedBy": "66b07c8034c2963abcdb9bb8",
        "Duration(seconds)": 1073.052
    },
    {
        "id": "a5a61f0854d2405d87b9d2bf",
        "process": "Rain Acc (Execute) Check",
        "jobID": "e46ae9e927874ab5a21e98fe",
        "processID": "a5a61f0854d2405d87b9d2bf",
        "status": "successful",
        "progress": 100,
        "createdAt": "2024-11-22T04:36:20.871Z",
        "createdBy": "66b07c8034c2963abcdb9bb8",
        "updatedAt": "2024-11-22T04:44:05.784Z",
        "updatedBy": "66b07c8034c2963abcdb9bb8",
        "Duration(seconds)": 464.913
    },
    {
        "id": "653ae67cdabf446d9ae5ca78",
        "process": "Rain Acc (Execute)",
        "jobID": "14eaf0df0e9245d6856ff903",
        "processID": "653ae67cdabf446d9ae5ca78",
        "status": "failed",
        "progress": 20,
        "createdAt": "2024-11-22T03:55:18.893Z",
        "createdBy": "66b07c8034c2963abcdb9bb8",
        "updatedAt": "2024-11-22T04:02:36.163Z",
        "updatedBy": "66b07c8034c2963abcdb9bb8",
        "Duration(seconds)": 437.27
    },
    {
        "id": "c00e7981a2464146ac4cbc66",
        "process": "Rain Forecast (Execute)",
        "jobID": "6c7c2a2440e84c4d9f6f2f1b",
        "processID": "c00e7981a2464146ac4cbc66",
        "status": "successful",
        "progress": 100,
        "createdAt": "2024-11-22T07:54:28.282Z",
        "createdBy": "66b07c8034c2963abcdb9bb8",
        "updatedAt": "2024-11-22T07:56:35.424Z",
        "updatedBy": "66b07c8034c2963abcdb9bb8",
        "Duration(seconds)": 127.142
    }
]